example-riddler-solution.utf8
…
class: split-40
count: false

.left-panel-riddler-map-auto[

```r
*bind_rows(start_grid, end_grid)
```
]
 
.right-panel-riddler-map-auto[

```
# A tibble: 68 x 6
       x     y  xend  yend index  time
   <dbl> <dbl> <dbl> <dbl> <int> <int>
 1    -8    -8    -8     8     1     1
 2    -7    -8    -7     8     2     1
 3    -6    -8    -6     8     3     1
 4    -5    -8    -5     8     4     1
 5    -4    -8    -4     8     5     1
 6    -3    -8    -3     8     6     1
 7    -2    -8    -2     8     7     1
 8    -1    -8    -1     8     8     1
 9     0    -8     0     8     9     1
10     1    -8     1     8    10     1
# ... with 58 more rows
```
…
